Customer RFM Segmentation with R
…
We see the transactions are between 12/1/2010 and 12/9/2011. Therefore, we can use 12/10/2011 as the reference date to calculate recency.

ref_date <- ymd("2011-12-10")

df_new %>% mutate(days_lastbuy=as.numeric(ref_date - InvoiceDate, units="days")) %>%
  group_by(CustomerID, Country) %>%
  summarize(recency=max(days_lastbuy),
            frequency=n(),
            monetary_value=sum(Quantity * UnitPrice)) %>%
  ungroup() %>%
  arrange(desc(monetary_value), recency, desc(frequency)) -> df_rfm

df_rfm

## # A tibble: 4,347 x 5
##    CustomerID Country        recency frequency monetary_value
##         <dbl> <chr>            <dbl>     <int>          <dbl>
##  1      14646 Netherlands        355      2080        280206.
##  2      18102 United Kingdom     368       431        259657.
##  3      17450 United Kingdom     368       337        194551.
##  4      16446 United Kingdom     206         3        168472.
##  5      14911 EIRE               374      5677        143825.
##  6      12415 Australia          338       716        124915.
##  7      14156 EIRE               372      1400        117380.
##  8      17511 United Kingdom     374       963         91062.
##  9      16029 United Kingdom     374       242         81025.
## 10      12346 United Kingdom     326         1         77184.
## # ... with 4,337 more rows

Quartile RFM

df_rfm %>% 
  mutate(r_quartile=ntile(desc(recency),4),
         f_quartile=ntile(desc(frequency),4),
         m_quartile=ntile(desc(monetary_value),4),
         rfm_score=paste(r_quartile,
                         f_quartile,
                         m_quartile, sep="")) -> df_rfm_qtl

df_rfm_qtl

## # A tibble: 4,347 x 9
##    CustomerID Country recency frequency monetary_value r_quartile
##         <dbl> <chr>     <dbl>     <int>          <dbl>      <int>
##  1      14646 Nether     355      2080        280206.          1
##  2      18102 United     368       431        259657.          1
##  3      17450 United     368       337        194551.          1
##  4      16446 United     206         3        168472.          3
##  5      14911 EIRE        374      5677        143825.          1
##  6      12415 Austra     338       716        124915.          1
##  7      14156 EIRE        372      1400        117380.          1
##  8      17511 United     374       963         91062.          1
##  9      16029 United     374       242         81025.          1
## 10      12346 United     326         1         77184.          2
## # ... with 4,337 more rows, and 3 more variables: f_quartile <int>,
## #   m_quartile <int>, rfm_score <chr>

We can find our top 10 customer as

df_rfm_qtl %>% 
  filter(rfm_score=="111") %>%
  arrange(desc(monetary_value)) %>%
  top_n(10)

## # A tibble: 428 x 9
##    CustomerID Country recency frequency monetary_value r_quartile
##         <dbl> <chr>     <dbl>     <int>          <dbl>      <int>
##  1      14646 Nether     355      2080        280206.          1
##  2      18102 United     368       431        259657.          1
##  3      17450 United     368       337        194551.          1
##  4      14911 EIRE        374      5677        143825.          1
##  5      12415 Austra     338       716        124915.          1
##  6      14156 EIRE        372      1400        117380.          1
##  7      17511 United     374       963         91062.          1
##  8      16029 United     374       242         81025.          1
##  9      16684 United     359       277         66654.          1
## 10      13694 United     374       568         65040.          1
## # ... with 418 more rows, and 3 more variables: f_quartile <int>,
## #   m_quartile <int>, rfm_score <chr>

Our top customer 14646 does not exist in the original analysis. Lets find out what has caused it.

df %>% filter(CustomerID == "14646")

## # A tibble: 2,085 x 8
##    InvoiceNo StockCode Description Quantity InvoiceDate         UnitPrice
##    <chr>     <chr>     <chr>          <dbl> <dttm>                  <dbl>
##  1 539491    21981     PACK OF 12       12 2010-12-20 10:09:00     0.290
##  2 539491    21986     PACK OF 12       12 2010-12-20 10:09:00     0.290
##  3 539491    22720     SET OF 3 C        2 2010-12-20 10:09:00     4.95 
##  4 539491    21931     JUMBO STOR        1 2010-12-20 10:09:00     1.95 
##  5 539491    22613     PACK OF 20        2 2010-12-20 10:09:00     0.85 
##  6 539491    20751     FUNKY WASH        1 2010-12-20 10:09:00     2.1  
##  7 539491    21246     RED RETROS        2 2010-12-20 10:09:00     4.95 
##  8 539491    22960     JAM MAKING        1 2010-12-20 10:09:00     4.25 
##  9 539491    22355     CHARLOTTE         2 2010-12-20 10:09:00     0.85 
## 10 539491    21123     SET/10 IVO        2 2010-12-20 10:09:00     1.25 
## # ... with 2,075 more rows, and 2 more variables: CustomerID <dbl>,
## #   Country <chr>
…
