Price Elasticity
…
Data Analysis

Data Preparation

library(tidyverse)
library(gridExtra)
library(lubridate)
library(broom)

The data set of this analysis can be downloaded from here.

df <- read_csv("beef.csv")
df

## # A tibble: 91 x 4
##     Year Quarter Quantity Price
##    <dbl>   <dbl>    <dbl> <dbl>
##  1  1977       1     23.0  142.
##  2  1977       2     22.6  144.
##  3  1977       3     23.4  146.
##  4  1977       4     22.7  151.
##  5  1978       1     22.0  160 
##  6  1978       2     21.8  183.
##  7  1978       3     21.6  186.
##  8  1978       4     21.9  186.
##  9  1979       1     20.5  212.
## 10  1979       2     19.0  232.
## # ... with 81 more rows
…
